…
# Search for artists
miles_df <- search_artists("Miles Davis")
#> Returning artists 1 to 18 of 4051
miles_df
#> # A tibble: 25 × 28
#>    mbid             type  type_id score name  sort_name gender gender_id country
#>    <chr>            <chr> <chr>   <int> <chr> <chr>     <chr>  <chr>     <chr>  
#>  1 561d854a-6a28-4… Pers… b6e035…   100 Mile… Davis, M… male   36d3d30a… US     
#>  2 fe7245e7-d734-4… Group e431f5…    72 Mile… Davis, M… <NA>   <NA>      US     
#>  3 f137837b-fa55-4… Group e431f5…    66 Mile… Davis, M… <NA>   <NA>      US     
#>  4 16d2b8e6-8930-4… Group e431f5…    64 The … Davis, M… <NA>   <NA>      <NA>   
#>  5 03606dee-b333-4… Group e431f5…    63 Mile… Davis, M… <NA>   <NA>      US     
#>  6 88130878-7ee9-4… Group e431f5…    61 Mile… Davis, M… <NA>   <NA>      <NA>   
#>  7 fa3baa96-ab14-4… Pers… b6e035…    61 Veng… Vengeance male   36d3d30a… US     
#>  8 616bb8ca-c0d5-4… <NA>  <NA>       61 Mile… Prower, … <NA>   <NA>      <NA>   
#>  9 55920730-831f-4… Group e431f5…    61 Mile… Miles Da… <NA>   <NA>      <NA>   
#> 10 d74d6350-a042-4… Pers… b6e035…    61 Mile… Moody, M… <NA>   <NA>      <NA>   
#> # ℹ 15 more rows
#> # ℹ 19 more variables: disambiguation <chr>, area_id <chr>, area_name <chr>,
#> #   area_sort_name <chr>, area_disambiguation <lgl>, area_iso <lgl>,
#> #   begin_area_id <chr>, begin_area_name <chr>, begin_area_sort_name <chr>,
#> #   begin_area_disambiguation <lgl>, end_area_id <chr>, end_area_name <chr>,
#> #   end_area_sort_name <chr>, end_area_disambiguation <lgl>,
#> #   life_span_begin <chr>, life_span_end <chr>, life_span_ended <lgl>, …
```
…
### Browse

We can also browse linked records (such as all releases by Miles Davis).

``` r
# Browse releases by artist
miles_releases <- browse_releases_by("artist", "561d854a-6a28-4aa7-8c99-323e6ce46c2a")
#> Returning releases 1 to 25 of 1927
miles_releases
#> # A tibble: 25 × 17
#>    mbid     score count title status status_id packaging_id packaging_name date 
#>    <chr>    <int> <lgl> <chr> <chr>  <chr>     <lgl>        <lgl>          <chr>
#>  1 16ed7b4…    NA NA    Vol.… Offic… 4e304316… NA           NA             1954 
#>  2 20ff542…    NA NA    I've… Offic… 4e304316… NA           NA             1953 
#>  3 3bdbd27…    NA NA    Yest… Offic… 4e304316… NA           NA             1951 
#>  4 49aa17f…    NA NA    Youn… <NA>   <NA>      NA           NA             1952 
#>  5 4a8c187…    NA NA    Clas… Offic… 4e304316… NA           NA             1954 
#>  6 645ad83…    NA NA    The … Offic… 4e304316… NA           NA             1953 
#>  7 6c101d7…    NA NA    Budo… Offic… 4e304316… NA           NA             1949…
#>  8 6fbb6d1…    NA NA    Mode… Offic… 4e304316… NA           NA             1951 
#>  9 7acd38f…    NA NA    Mile… Offic… 4e304316… NA           NA             1955…
#> 10 8292500…    NA NA    Mile… Offic… 4e304316… NA           NA             1953 
#> # ℹ 15 more rows
#> # ℹ 8 more variables: country <chr>, disambiguation <chr>, barcode <chr>,
#> #   asin <lgl>, track_count <lgl>, quality <chr>, release_group_id <lgl>,
#> #   release_group_primary_type <lgl>
…
